BITDEP;BITDEP;FLOWOUT;FLOWOUT;FLOWIN;FLOWIN;FLOWOUTPC;FLOWOUTPC;PIT_DRILL;PIT_DRILL;GL_DRILL;GL_DRILL
INDEX;VALUE;INDEX;VALUE;INDEX;VALUE;INDEX;VALUE;INDEX;VALUE;INDEX;VALUE
time;m;time;m3/s;time;m3/s;time;;time;m3;time;m3
2016-05-21T00:00:00Z;1783.8;2016-05-21T00:00:00Z;0;2016-05-21T00:00:00Z;0.017671363;2016-05-21T00:00:00Z;0.053533524;2016-05-21T00:00:00Z;76.571633;2016-05-21T00:00:00Z;-0.55819042
2016-05-21T00:00:02Z;1785.5119;2016-05-21T00:00:02Z;0;2016-05-21T00:00:02Z;0.017642677;2016-05-21T00:00:02Z;0.015718259;2016-05-21T00:00:30Z;76.415115;2016-05-21T00:00:30Z;-0.71470874
2016-05-21T00:00:05Z;1785.8655;2016-05-21T00:00:05Z;0;2016-05-21T00:00:05Z;0.017657373;2016-05-21T00:00:05Z;0.22335295;2016-05-21T00:01:00Z;76.405582;2016-05-21T00:01:00Z;-0.72424158
2016-05-21T00:00:08Z;1785.8616;2016-05-21T00:00:08Z;0;2016-05-21T00:00:08Z;0.017709713;2016-05-21T00:00:08Z;0.3487511;2016-05-21T00:01:30Z;76.408369;2016-05-21T00:01:30Z;-0.72145436
2016-05-21T00:00:11Z;1785.8455;2016-05-21T00:00:11Z;0;2016-05-21T00:00:11Z;0.017696875;2016-05-21T00:00:11Z;0.15032592;2016-05-21T00:02:00Z;76.354683;2016-05-21T00:02:00Z;-0.77514035
2016-05-21T00:00:14Z;1785.8404;2016-05-21T00:00:14Z;0;2016-05-21T00:00:14Z;0.017672515;2016-05-21T00:00:14Z;0.22104685;2016-05-21T00:02:30Z;76.510357;2016-05-21T00:02:30Z;-0.61946623
2016-05-21T00:00:16Z;1785.8558;2016-05-21T00:00:16Z;0;2016-05-21T00:00:16Z;0.01767228;2016-05-21T00:00:16Z;0.16036373;2016-05-21T00:03:00Z;76.64121;2016-05-21T00:03:00Z;-0.4886139
2016-05-21T00:00:19Z;1785.8661;2016-05-21T00:00:19Z;0;2016-05-21T00:00:19Z;0.017679264;2016-05-21T00:00:19Z;0.11097425;2016-05-21T00:03:30Z;76.720844;2016-05-21T00:03:30Z;-0.4089798
2016-05-21T00:00:22Z;1785.8906;2016-05-21T00:00:22Z;0;2016-05-21T00:00:22Z;0.01768486;2016-05-21T00:00:22Z;0.098028416;2016-05-21T00:04:00Z;76.862225;2016-05-21T00:04:00Z;-0.26759814
2016-05-21T00:00:25Z;1785.8793;2016-05-21T00:00:25Z;0;2016-05-21T00:00:25Z;0.017689633;2016-05-21T00:00:25Z;0.083357132;2016-05-21T00:04:30Z;77.364732;2016-05-21T00:04:30Z;0.23490882
2016-05-21T00:00:28Z;1785.8624;2016-05-21T00:00:28Z;0;2016-05-21T00:00:28Z;0.017685683;2016-05-21T00:00:28Z;0.059318593;2016-05-21T00:05:00Z;77.730174;2016-05-21T00:05:00Z;0.6003504
2016-05-21T00:00:30Z;1786.0463;2016-05-21T00:00:30Z;0;2016-05-21T00:00:30Z;0.017678864;2016-05-21T00:00:30Z;0.071998294;2016-05-21T00:05:30Z;78.267693;2016-05-21T00:05:30Z;1.13787
2016-05-21T00:00:33Z;1786.4472;2016-05-21T00:00:33Z;0;2016-05-21T00:00:33Z;0.017683049;2016-05-21T00:00:33Z;0.052905074;2016-05-21T00:06:00Z;78.524198;2016-05-21T00:06:00Z;1.3943748
2016-05-21T00:00:36Z;1787.066;2016-05-21T00:00:36Z;0;2016-05-21T00:00:36Z;0.017691937;2016-05-21T00:00:36Z;-0.007128586;2016-05-21T00:06:30Z;78.453369;2016-05-21T00:06:30Z;1.3235451
2016-05-21T00:00:39Z;1788.2804;2016-05-21T00:00:39Z;0;2016-05-21T00:00:39Z;0.017665273;2016-05-21T00:00:39Z;0.11064074;2016-05-21T00:07:00Z;78.791459;2016-05-21T00:07:00Z;1.661636
2016-05-21T00:00:42Z;1788.3075;2016-05-21T00:00:42Z;0;2016-05-21T00:00:42Z;0.017669882;2016-05-21T00:00:42Z;0.23418612;2016-05-21T00:07:30Z;78.889781;2016-05-21T00:07:30Z;1.7599572
2016-05-21T00:00:44Z;1788.3036;2016-05-21T00:00:44Z;0;2016-05-21T00:00:44Z;0.017671528;2016-05-21T00:00:44Z;0.17961948;2016-05-21T00:08:00Z;78.986986;2016-05-21T00:08:00Z;1.8571628
2016-05-21T00:00:47Z;1788.5442;2016-05-21T00:00:47Z;0;2016-05-21T00:00:47Z;0.017734896;2016-05-21T00:00:47Z;0.049485799;;;;
2016-05-21T00:00:50Z;1788.8553;2016-05-21T00:00:50Z;0;2016-05-21T00:00:50Z;0.017698686;2016-05-21T00:00:50Z;0.16175408;;;;
2016-05-21T00:00:53Z;1789.7909;2016-05-21T00:00:53Z;0;2016-05-21T00:00:53Z;0.01767663;2016-05-21T00:00:53Z;0.089635488;;;;
2016-05-21T00:00:56Z;1790.1663;2016-05-21T00:00:56Z;0;2016-05-21T00:00:56Z;0.017687164;2016-05-21T00:00:56Z;0.10037312;;;;
2016-05-21T00:00:58Z;1790.5431;2016-05-21T00:00:58Z;0;2016-05-21T00:00:58Z;0.017690926;2016-05-21T00:00:58Z;0.15926859;;;;
2016-05-21T00:01:01Z;1791.2993;2016-05-21T00:01:01Z;0;2016-05-21T00:01:01Z;0.017725514;2016-05-21T00:01:01Z;0.19165506;;;;
2016-05-21T00:01:04Z;1791.8092;2016-05-21T00:01:04Z;0;2016-05-21T00:01:04Z;0.017707738;2016-05-21T00:01:04Z;0.2131509;;;;
2016-05-21T00:01:07Z;1792.9028;2016-05-21T00:01:07Z;0;2016-05-21T00:01:07Z;0.017685518;2016-05-21T00:01:07Z;0.20976956;;;;
2016-05-21T00:01:10Z;1793.3535;2016-05-21T00:01:10Z;0;2016-05-21T00:01:10Z;0.017677289;2016-05-21T00:01:10Z;0.23250422;;;;
2016-05-21T00:01:12Z;1793.7479;2016-05-21T00:01:12Z;0;2016-05-21T00:01:12Z;0.017674349;2016-05-21T00:01:12Z;0.19104534;;;;
2016-05-21T00:01:15Z;1794.068;2016-05-21T00:01:15Z;0;2016-05-21T00:01:15Z;0.017697369;2016-05-21T00:01:15Z;0.17900135;;;;
2016-05-21T00:01:18Z;1794.5244;2016-05-21T00:01:18Z;0;2016-05-21T00:01:18Z;0.017700002;2016-05-21T00:01:18Z;0.23522925;;;;
2016-05-21T00:01:21Z;1796.2648;2016-05-21T00:01:21Z;0;2016-05-21T00:01:21Z;0.017685024;2016-05-21T00:01:21Z;0.1641756;;;;
2016-05-21T00:01:24Z;1796.7186;2016-05-21T00:01:24Z;0;2016-05-21T00:01:24Z;0.017676795;2016-05-21T00:01:24Z;0.31909036;;;;
2016-05-21T00:01:26Z;1797.0743;2016-05-21T00:01:26Z;0;2016-05-21T00:01:26Z;0.017710889;2016-05-21T00:01:26Z;0.34477026;;;;
2016-05-21T00:01:29Z;1798.7432;2016-05-21T00:01:29Z;0;2016-05-21T00:01:29Z;0.01773901;2016-05-21T00:01:29Z;0.28724783;;;;
2016-05-21T00:01:32Z;1799.414;2016-05-21T00:01:32Z;0;2016-05-21T00:01:32Z;0.017696875;2016-05-21T00:01:32Z;0.2823559;;;;
2016-05-21T00:01:35Z;1799.6184;2016-05-21T00:01:35Z;0;2016-05-21T00:01:35Z;0.017723539;2016-05-21T00:01:35Z;0.48200203;;;;
2016-05-21T00:01:38Z;1799.6994;2016-05-21T00:01:38Z;0;2016-05-21T00:01:38Z;0.017749544;2016-05-21T00:01:38Z;0.40677679;;;;
2016-05-21T00:01:40Z;1799.7913;2016-05-21T00:01:40Z;0;2016-05-21T00:01:40Z;0.017724268;2016-05-21T00:01:40Z;0.3587684;;;;
2016-05-21T00:01:43Z;1800.6079;2016-05-21T00:01:43Z;0;2016-05-21T00:01:43Z;0.017682062;2016-05-21T00:01:43Z;0.35810075;;;;
2016-05-21T00:01:46Z;1801.0232;2016-05-21T00:01:46Z;0;2016-05-21T00:01:46Z;0.017690291;2016-05-21T00:01:46Z;0.33732825;;;;
2016-05-21T00:01:49Z;1801.3866;2016-05-21T00:01:49Z;0;2016-05-21T00:01:49Z;0.017720741;2016-05-21T00:01:49Z;0.30381274;;;;
2016-05-21T00:01:52Z;1801.6678;2016-05-21T00:01:52Z;0;2016-05-21T00:01:52Z;0.017734896;2016-05-21T00:01:52Z;0.25128396;;;;
2016-05-21T00:01:54Z;1801.9063;2016-05-21T00:01:54Z;0;2016-05-21T00:01:54Z;0.017729605;2016-05-21T00:01:54Z;0.19832185;;;;
2016-05-21T00:01:57Z;1802.3395;2016-05-21T00:01:57Z;0;2016-05-21T00:01:57Z;0.017734073;2016-05-21T00:01:57Z;0.22483044;;;;
2016-05-21T00:02:00Z;1802.4676;2016-05-21T00:02:00Z;0;2016-05-21T00:02:00Z;0.017756128;2016-05-21T00:02:00Z;0.18516456;;;;
2016-05-21T00:02:03Z;1802.4691;2016-05-21T00:02:03Z;0;2016-05-21T00:02:03Z;0.017752013;2016-05-21T00:02:03Z;0.15769406;;;;
2016-05-21T00:02:06Z;1802.4691;2016-05-21T00:02:06Z;0;2016-05-21T00:02:06Z;0.01772897;2016-05-21T00:02:06Z;0.079535458;;;;
2016-05-21T00:02:08Z;1802.4691;2016-05-21T00:02:08Z;0;2016-05-21T00:02:08Z;0.01772756;2016-05-21T00:02:08Z;0.054163925;;;;
2016-05-21T00:02:11Z;1802.5259;2016-05-21T00:02:11Z;0;2016-05-21T00:02:11Z;0.017741315;2016-05-21T00:02:11Z;0.19067546;;;;
2016-05-21T00:02:14Z;1802.6135;2016-05-21T00:02:14Z;0;2016-05-21T00:02:14Z;0.017736377;2016-05-21T00:02:14Z;0.048411964;;;;
2016-05-21T00:02:17Z;1802.7754;2016-05-21T00:02:17Z;0;2016-05-21T00:02:17Z;0.017734731;2016-05-21T00:02:17Z;-0.002623604;;;;
2016-05-21T00:02:20Z;1802.8631;2016-05-21T00:02:20Z;0;2016-05-21T00:02:20Z;0.017734402;2016-05-21T00:02:20Z;0.094456458;;;;
2016-05-21T00:02:22Z;1803.0087;2016-05-21T00:02:22Z;0;2016-05-21T00:02:22Z;0.01773546;2016-05-21T00:02:22Z;0.040286573;;;;
2016-05-21T00:02:25Z;1803.2475;2016-05-21T00:02:25Z;0;2016-05-21T00:02:25Z;0.017722222;2016-05-21T00:02:25Z;7.99E-04;;;;
2016-05-21T00:02:28Z;1803.2907;2016-05-21T00:02:28Z;0;2016-05-21T00:02:28Z;0.017703788;2016-05-21T00:02:28Z;0.21264925;;;;
2016-05-21T00:02:31Z;1803.2908;2016-05-21T00:02:31Z;0;2016-05-21T00:02:31Z;0.017695723;2016-05-21T00:02:31Z;0.23595251;;;;
2016-05-21T00:02:34Z;1803.2908;2016-05-21T00:02:34Z;0;2016-05-21T00:02:34Z;0.017704611;2016-05-21T00:02:34Z;0.16193962;;;;
2016-05-21T00:02:36Z;1803.2907;2016-05-21T00:02:36Z;0;2016-05-21T00:02:36Z;0.017709313;2016-05-21T00:02:36Z;0.12351109;;;;
2016-05-21T00:02:39Z;1803.2907;2016-05-21T00:02:39Z;0;2016-05-21T00:02:39Z;0.017687987;2016-05-21T00:02:39Z;0.15574525;;;;
2016-05-21T00:02:42Z;1803.2907;2016-05-21T00:02:42Z;0;2016-05-21T00:02:42Z;0.017681403;2016-05-21T00:02:42Z;0.27680664;;;;
2016-05-21T00:02:45Z;1803.2908;2016-05-21T00:02:45Z;0;2016-05-21T00:02:45Z;0.017676959;2016-05-21T00:02:45Z;0.058399443;;;;
2016-05-21T00:02:48Z;1803.2908;2016-05-21T00:02:48Z;0;2016-05-21T00:02:48Z;0.017683214;2016-05-21T00:02:48Z;0.089398139;;;;
2016-05-21T00:02:50Z;1803.2907;2016-05-21T00:02:50Z;0;2016-05-21T00:02:50Z;0.017683802;2016-05-21T00:02:50Z;0.10090806;;;;
2016-05-21T00:02:53Z;1803.2907;2016-05-21T00:02:53Z;0;2016-05-21T00:02:53Z;0.017684037;2016-05-21T00:02:53Z;0.077639525;;;;
2016-05-21T00:02:56Z;1803.2907;2016-05-21T00:02:56Z;0;2016-05-21T00:02:56Z;0.017684037;2016-05-21T00:02:56Z;0.038201128;;;;
2016-05-21T00:02:59Z;1803.11;2016-05-21T00:02:59Z;0;2016-05-21T00:02:59Z;0.017695558;2016-05-21T00:02:59Z;0.02611293;;;;
2016-05-21T00:03:02Z;1803.11;2016-05-21T00:03:02Z;0;2016-05-21T00:03:02Z;0.017693912;2016-05-21T00:03:02Z;0.11761588;;;;
2016-05-21T00:03:04Z;1803.11;2016-05-21T00:03:04Z;0;2016-05-21T00:03:04Z;0.017697792;2016-05-21T00:03:04Z;0.11552551;;;;
2016-05-21T00:03:07Z;1803.11;2016-05-21T00:03:07Z;0;2016-05-21T00:03:07Z;0.017691773;2016-05-21T00:03:07Z;0.0791505;;;;
2016-05-21T00:03:10Z;1803.11;2016-05-21T00:03:10Z;0;2016-05-21T00:03:10Z;0.01767663;2016-05-21T00:03:10Z;0.072878922;;;;
2016-05-21T00:03:13Z;1791.8092;2016-05-21T00:03:13Z;0;2016-05-21T00:03:13Z;0.017680087;2016-05-21T00:03:13Z;-0.002448348;;;;
2016-05-21T00:03:16Z;1791.8092;2016-05-21T00:03:16Z;0;2016-05-21T00:03:16Z;0.017679428;2016-05-21T00:03:16Z;0.10832437;;;;
2016-05-21T00:03:18Z;1791.8092;2016-05-21T00:03:18Z;0;2016-05-21T00:03:18Z;0.017690479;2016-05-21T00:03:18Z;0.14908319;;;;
2016-05-21T00:03:21Z;1791.8092;2016-05-21T00:03:21Z;0;2016-05-21T00:03:21Z;0.017684037;2016-05-21T00:03:21Z;0.090267525;;;;
2016-05-21T00:03:24Z;1791.8092;2016-05-21T00:03:24Z;0;2016-05-21T00:03:24Z;0.017657373;2016-05-21T00:03:24Z;-0.007558254;;;;
2016-05-21T00:03:27Z;1803.11;2016-05-21T00:03:27Z;0;2016-05-21T00:03:27Z;0.017648979;2016-05-21T00:03:27Z;0.016261407;;;;
2016-05-21T00:03:30Z;1803.11;2016-05-21T00:03:30Z;0;2016-05-21T00:03:30Z;0.017648979;2016-05-21T00:03:30Z;0.062344587;;;;
2016-05-21T00:03:32Z;1801.7746;2016-05-21T00:03:32Z;0;2016-05-21T00:03:32Z;0.017648979;2016-05-21T00:03:32Z;0.016616591;;;;
2016-05-21T00:03:35Z;1801.7747;2016-05-21T00:03:35Z;0;2016-05-21T00:03:35Z;0.013924932;2016-05-21T00:03:35Z;0.010523209;;;;
2016-05-21T00:03:38Z;1801.7747;2016-05-21T00:03:38Z;0;2016-05-21T00:03:38Z;0.009874007;2016-05-21T00:03:38Z;0.006630069;;;;
2016-05-21T00:03:41Z;1801.7747;2016-05-21T00:03:41Z;0;2016-05-21T00:03:41Z;0.005888589;2016-05-21T00:03:41Z;-0.012501962;;;;
2016-05-21T00:03:44Z;1801.7747;2016-05-21T00:03:44Z;0;2016-05-21T00:03:44Z;0;2016-05-21T00:03:44Z;-0.008315526;;;;
2016-05-21T00:03:46Z;1801.7747;2016-05-21T00:03:46Z;0;2016-05-21T00:03:46Z;0;2016-05-21T00:03:46Z;-0.008229286;;;;
2016-05-21T00:03:49Z;1801.7764;2016-05-21T00:03:49Z;0;2016-05-21T00:03:49Z;0;2016-05-21T00:03:49Z;-0.008202143;;;;
2016-05-21T00:03:52Z;1801.7865;2016-05-21T00:03:52Z;0;2016-05-21T00:03:52Z;0;2016-05-21T00:03:52Z;-0.008310769;;;;
2016-05-21T00:03:55Z;1801.8215;2016-05-21T00:03:55Z;0;2016-05-21T00:03:55Z;0;2016-05-21T00:03:55Z;-0.008310135;;;;
2016-05-21T00:03:58Z;1801.8215;2016-05-21T00:03:58Z;0;2016-05-21T00:03:58Z;0;2016-05-21T00:03:58Z;-0.008263799;;;;
2016-05-21T00:04:00Z;1801.8215;2016-05-21T00:04:00Z;0;2016-05-21T00:04:00Z;0;2016-05-21T00:04:00Z;-0.008247378;;;;
2016-05-21T00:04:03Z;1801.8215;2016-05-21T00:04:03Z;0;2016-05-21T00:04:03Z;0;2016-05-21T00:04:03Z;-0.00828988;;;;
2016-05-21T00:04:06Z;1801.8215;2016-05-21T00:04:06Z;0;2016-05-21T00:04:06Z;0;2016-05-21T00:04:06Z;-0.006136047;;;;
2016-05-21T00:04:09Z;1801.8215;2016-05-21T00:04:09Z;0;2016-05-21T00:04:09Z;0;2016-05-21T00:04:09Z;-0.00834129;;;;
2016-05-21T00:04:12Z;1801.8215;2016-05-21T00:04:12Z;0;2016-05-21T00:04:12Z;0;2016-05-21T00:04:12Z;-0.008172237;;;;
2016-05-21T00:04:14Z;1801.8215;2016-05-21T00:04:14Z;0;2016-05-21T00:04:14Z;0;2016-05-21T00:04:14Z;-0.008116638;;;;
2016-05-21T00:04:17Z;1801.8215;2016-05-21T00:04:17Z;0;2016-05-21T00:04:17Z;0;2016-05-21T00:04:17Z;-0.008181987;;;;
2016-05-21T00:04:20Z;1801.8215;2016-05-21T00:04:20Z;0;2016-05-21T00:04:20Z;0;2016-05-21T00:04:20Z;-0.00829535;;;;
2016-05-21T00:04:23Z;1801.8215;2016-05-21T00:04:23Z;0;2016-05-21T00:04:23Z;0;2016-05-21T00:04:23Z;-0.008151407;;;;
2016-05-21T00:04:26Z;1801.8215;2016-05-21T00:04:26Z;0;2016-05-21T00:04:26Z;0;2016-05-21T00:04:26Z;-0.008053107;;;;
2016-05-21T00:04:28Z;1801.8215;2016-05-21T00:04:28Z;0;2016-05-21T00:04:28Z;0;2016-05-21T00:04:28Z;-0.008192531;;;;
2016-05-21T00:04:31Z;1801.8215;2016-05-21T00:04:31Z;0;2016-05-21T00:04:31Z;0;2016-05-21T00:04:31Z;-0.008192531;;;;
2016-05-21T00:04:34Z;1801.8215;2016-05-21T00:04:34Z;0;2016-05-21T00:04:34Z;0;2016-05-21T00:04:34Z;-0.008341587;;;;
2016-05-21T00:04:37Z;1801.8215;2016-05-21T00:04:37Z;0;2016-05-21T00:04:37Z;0;2016-05-21T00:04:37Z;-0.008228482;;;;
2016-05-21T00:04:40Z;1801.8215;2016-05-21T00:04:40Z;0;2016-05-21T00:04:40Z;0;2016-05-21T00:04:40Z;-0.008228125;;;;
2016-05-21T00:04:42Z;1801.8215;2016-05-21T00:04:42Z;0;2016-05-21T00:04:42Z;0;2016-05-21T00:04:42Z;-0.008248163;;;;
2016-05-21T00:04:45Z;1801.8215;2016-05-21T00:04:45Z;0;2016-05-21T00:04:45Z;0;2016-05-21T00:04:45Z;-0.008228105;;;;
2016-05-21T00:04:48Z;1801.8215;2016-05-21T00:04:48Z;0;2016-05-21T00:04:48Z;0;2016-05-21T00:04:48Z;-0.008191659;;;;
2016-05-21T00:04:51Z;1801.8215;2016-05-21T00:04:51Z;0;2016-05-21T00:04:51Z;0;2016-05-21T00:04:51Z;-0.008228323;;;;
2016-05-21T00:04:54Z;1801.8215;2016-05-21T00:04:54Z;0;2016-05-21T00:04:54Z;0;2016-05-21T00:04:54Z;-0.008253572;;;;
2016-05-21T00:04:56Z;1801.8215;2016-05-21T00:04:56Z;0;2016-05-21T00:04:56Z;0;2016-05-21T00:04:56Z;-0.008261146;;;;
2016-05-21T00:04:59Z;1801.8215;2016-05-21T00:04:59Z;0;2016-05-21T00:04:59Z;0;2016-05-21T00:04:59Z;-0.008187636;;;;
2016-05-21T00:05:02Z;1801.8215;2016-05-21T00:05:02Z;0;2016-05-21T00:05:02Z;0;2016-05-21T00:05:02Z;-0.008182443;;;;
2016-05-21T00:05:05Z;1801.8215;2016-05-21T00:05:05Z;0;2016-05-21T00:05:05Z;0;2016-05-21T00:05:05Z;-0.008166311;;;;
2016-05-21T00:05:08Z;1801.8215;2016-05-21T00:05:08Z;0;2016-05-21T00:05:08Z;0;2016-05-21T00:05:08Z;-0.008192967;;;;
2016-05-21T00:05:10Z;1801.8215;2016-05-21T00:05:10Z;0;2016-05-21T00:05:10Z;0;2016-05-21T00:05:10Z;-0.008177855;;;;
2016-05-21T00:05:13Z;1801.8215;2016-05-21T00:05:13Z;0;2016-05-21T00:05:13Z;0;2016-05-21T00:05:13Z;-0.008151031;;;;
2016-05-21T00:05:16Z;1801.8215;2016-05-21T00:05:16Z;0;2016-05-21T00:05:16Z;0;2016-05-21T00:05:16Z;-0.008130419;;;;
2016-05-21T00:05:19Z;1801.8215;2016-05-21T00:05:19Z;0;2016-05-21T00:05:19Z;0;2016-05-21T00:05:19Z;-0.008125554;;;;
2016-05-21T00:05:22Z;1801.8215;2016-05-21T00:05:22Z;0;2016-05-21T00:05:22Z;0;2016-05-21T00:05:22Z;-0.00807788;;;;
2016-05-21T00:05:24Z;1801.8215;2016-05-21T00:05:24Z;0;2016-05-21T00:05:24Z;0;2016-05-21T00:05:24Z;-0.008073435;;;;
2016-05-21T00:05:27Z;1801.8215;2016-05-21T00:05:27Z;0;2016-05-21T00:05:27Z;0;2016-05-21T00:05:27Z;-0.008213004;;;;
2016-05-21T00:05:30Z;1801.8215;2016-05-21T00:05:30Z;0;2016-05-21T00:05:30Z;0;2016-05-21T00:05:30Z;-0.00809972;;;;
2016-05-21T00:05:33Z;1801.8215;2016-05-21T00:05:33Z;0;2016-05-21T00:05:33Z;0;2016-05-21T00:05:33Z;-0.008099264;;;;
2016-05-21T00:05:36Z;1801.8215;2016-05-21T00:05:36Z;0;2016-05-21T00:05:36Z;0;2016-05-21T00:05:36Z;-0.008059052;;;;
2016-05-21T00:05:38Z;1801.8215;2016-05-21T00:05:38Z;0;2016-05-21T00:05:38Z;0;2016-05-21T00:05:38Z;-0.008183782;;;;
2016-05-21T00:05:41Z;1801.8215;2016-05-21T00:05:41Z;0;2016-05-21T00:05:41Z;0;2016-05-21T00:05:41Z;-0.008253612;;;;
2016-05-21T00:05:44Z;1801.8215;2016-05-21T00:05:44Z;0;2016-05-21T00:05:44Z;0;2016-05-21T00:05:44Z;-0.008233655;;;;
2016-05-21T00:05:47Z;1801.8215;2016-05-21T00:05:47Z;0;2016-05-21T00:05:47Z;0;2016-05-21T00:05:47Z;-0.00812047;;;;
2016-05-21T00:05:50Z;1801.8215;2016-05-21T00:05:50Z;0;2016-05-21T00:05:50Z;0;2016-05-21T00:05:50Z;-0.008079426;;;;
2016-05-21T00:05:52Z;1801.8215;2016-05-21T00:05:52Z;0;2016-05-21T00:05:52Z;0;2016-05-21T00:05:52Z;-0.008156966;;;;
2016-05-21T00:05:55Z;1801.8215;2016-05-21T00:05:55Z;0;2016-05-21T00:05:55Z;0;2016-05-21T00:05:55Z;-0.008156382;;;;
2016-05-21T00:05:58Z;1801.8215;2016-05-21T00:05:58Z;0;2016-05-21T00:05:58Z;0;2016-05-21T00:05:58Z;-0.00815658;;;;
2016-05-21T00:06:01Z;1801.8215;2016-05-21T00:06:01Z;0;2016-05-21T00:06:01Z;0;2016-05-21T00:06:01Z;-0.008151229;;;;
2016-05-21T00:06:04Z;1801.8215;2016-05-21T00:06:04Z;0;2016-05-21T00:06:04Z;0;2016-05-21T00:06:04Z;-0.008135295;;;;
2016-05-21T00:06:06Z;1801.8215;2016-05-21T00:06:06Z;0;2016-05-21T00:06:06Z;0;2016-05-21T00:06:06Z;-0.008123071;;;;
2016-05-21T00:06:09Z;1801.8215;2016-05-21T00:06:09Z;0;2016-05-21T00:06:09Z;0;2016-05-21T00:06:09Z;-0.008141181;;;;
2016-05-21T00:06:12Z;1801.8215;2016-05-21T00:06:12Z;0;2016-05-21T00:06:12Z;0;2016-05-21T00:06:12Z;-0.008059369;;;;
2016-05-21T00:06:15Z;1801.8215;2016-05-21T00:06:15Z;0;2016-05-21T00:06:15Z;0;2016-05-21T00:06:15Z;-0.008063829;;;;
2016-05-21T00:06:18Z;1801.8215;2016-05-21T00:06:18Z;0;2016-05-21T00:06:18Z;0;2016-05-21T00:06:18Z;-0.008140745;;;;
2016-05-21T00:06:20Z;1801.8215;2016-05-21T00:06:20Z;0;2016-05-21T00:06:20Z;0;2016-05-21T00:06:20Z;-0.008157668;;;;
2016-05-21T00:06:23Z;1801.8215;2016-05-21T00:06:23Z;0;2016-05-21T00:06:23Z;0;2016-05-21T00:06:23Z;-0.008118485;;;;
2016-05-21T00:06:26Z;1801.8215;2016-05-21T00:06:26Z;0;2016-05-21T00:06:26Z;0;2016-05-21T00:06:26Z;-0.008088542;;;;
2016-05-21T00:06:29Z;1801.8215;2016-05-21T00:06:29Z;0;2016-05-21T00:06:29Z;0;2016-05-21T00:06:29Z;-0.008084301;;;;
2016-05-21T00:06:32Z;1801.8215;2016-05-21T00:06:32Z;0;2016-05-21T00:06:32Z;0;2016-05-21T00:06:32Z;-0.008274739;;;;
2016-05-21T00:06:34Z;1801.8215;2016-05-21T00:06:34Z;0;2016-05-21T00:06:34Z;0;2016-05-21T00:06:34Z;-0.008162508;;;;
2016-05-21T00:06:37Z;1801.8215;2016-05-21T00:06:37Z;0;2016-05-21T00:06:37Z;0;2016-05-21T00:06:37Z;-0.008182205;;;;
2016-05-21T00:06:40Z;1801.8215;2016-05-21T00:06:40Z;0;2016-05-21T00:06:40Z;0;2016-05-21T00:06:40Z;-0.008099344;;;;
2016-05-21T00:06:43Z;1801.8215;2016-05-21T00:06:43Z;0;2016-05-21T00:06:43Z;0;2016-05-21T00:06:43Z;-0.008130419;;;;
2016-05-21T00:06:46Z;1801.8215;2016-05-21T00:06:46Z;0;2016-05-21T00:06:46Z;0;2016-05-21T00:06:46Z;-0.008187457;;;;
2016-05-21T00:06:48Z;1801.8215;2016-05-21T00:06:48Z;0;2016-05-21T00:06:48Z;0;2016-05-21T00:06:48Z;-0.008143049;;;;
2016-05-21T00:06:51Z;1801.8215;2016-05-21T00:06:51Z;0;2016-05-21T00:06:51Z;0;2016-05-21T00:06:51Z;-0.008125484;;;;
2016-05-21T00:06:54Z;1801.8215;2016-05-21T00:06:54Z;0;2016-05-21T00:06:54Z;0;2016-05-21T00:06:54Z;-0.00829537;;;;
2016-05-21T00:06:57Z;1801.8215;2016-05-21T00:06:57Z;0;2016-05-21T00:06:57Z;0;2016-05-21T00:06:57Z;-0.008174264;;;;
2016-05-21T00:07:00Z;1801.8215;2016-05-21T00:07:00Z;0;2016-05-21T00:07:00Z;0;2016-05-21T00:07:00Z;-0.008161277;;;;
2016-05-21T00:07:02Z;1801.8215;2016-05-21T00:07:02Z;0;2016-05-21T00:07:02Z;0;2016-05-21T00:07:02Z;-0.008130155;;;;
2016-05-21T00:07:05Z;1801.8215;2016-05-21T00:07:05Z;0;2016-05-21T00:07:05Z;0;2016-05-21T00:07:05Z;-0.008053543;;;;
2016-05-21T00:07:08Z;1801.8215;2016-05-21T00:07:08Z;0;2016-05-21T00:07:08Z;0;2016-05-21T00:07:08Z;-0.008170657;;;;
2016-05-21T00:07:11Z;1801.8215;2016-05-21T00:07:11Z;0;2016-05-21T00:07:11Z;0;2016-05-21T00:07:11Z;-0.008022447;;;;
2016-05-21T00:07:14Z;1801.8215;2016-05-21T00:07:14Z;0;2016-05-21T00:07:14Z;0;2016-05-21T00:07:14Z;-0.008078494;;;;
2016-05-21T00:07:16Z;1801.8215;2016-05-21T00:07:16Z;0;2016-05-21T00:07:16Z;0;2016-05-21T00:07:16Z;-0.008150606;;;;
2016-05-21T00:07:19Z;1801.8215;2016-05-21T00:07:19Z;0;2016-05-21T00:07:19Z;0;2016-05-21T00:07:19Z;-0.008032614;;;;
2016-05-21T00:07:22Z;1801.8215;2016-05-21T00:07:22Z;0;2016-05-21T00:07:22Z;0;2016-05-21T00:07:22Z;-0.008028234;;;;
2016-05-21T00:07:25Z;1801.8215;2016-05-21T00:07:25Z;0;2016-05-21T00:07:25Z;0;2016-05-21T00:07:25Z;-0.008038183;;;;
2016-05-21T00:07:28Z;1795.2218;2016-05-21T00:07:28Z;0;2016-05-21T00:07:28Z;0;2016-05-21T00:07:28Z;-0.008095664;;;;
2016-05-21T00:07:30Z;1796.124;2016-05-21T00:07:30Z;0;2016-05-21T00:07:30Z;0;2016-05-21T00:07:30Z;-0.008044839;;;;
2016-05-21T00:07:33Z;1798.1283;2016-05-21T00:07:33Z;0;2016-05-21T00:07:33Z;7.92E-04;2016-05-21T00:07:33Z;-0.008069358;;;;
2016-05-21T00:07:36Z;1799.0344;2016-05-21T00:07:36Z;0;2016-05-21T00:07:36Z;0.002376413;2016-05-21T00:07:36Z;-0.008114921;;;;
2016-05-21T00:07:39Z;1800.544;2016-05-21T00:07:39Z;0;2016-05-21T00:07:39Z;7.92E-04;2016-05-21T00:07:39Z;-0.008156243;;;;
2016-05-21T00:07:42Z;1801.104;2016-05-21T00:07:42Z;0;2016-05-21T00:07:42Z;0.002376413;2016-05-21T00:07:42Z;-0.00789967;;;;
2016-05-21T00:07:44Z;1801.5011;2016-05-21T00:07:44Z;0;2016-05-21T00:07:44Z;6.79E-04;2016-05-21T00:07:44Z;-0.008049953;;;;
2016-05-21T00:07:47Z;1801.8274;2016-05-21T00:07:47Z;0;2016-05-21T00:07:47Z;0;2016-05-21T00:07:47Z;-0.008053622;;;;
2016-05-21T00:07:50Z;1801.8887;2016-05-21T00:07:50Z;0;2016-05-21T00:07:50Z;0;2016-05-21T00:07:50Z;-0.007991272;;;;
2016-05-21T00:07:53Z;1801.9069;2016-05-21T00:07:53Z;0;2016-05-21T00:07:53Z;0;2016-05-21T00:07:53Z;-0.008161475;;;;
2016-05-21T00:07:56Z;1801.9069;2016-05-21T00:07:56Z;0;2016-05-21T00:07:56Z;0;2016-05-21T00:07:56Z;-0.008058022;;;;
2016-05-21T00:07:58Z;1801.9069;2016-05-21T00:07:58Z;0;2016-05-21T00:07:58Z;0;2016-05-21T00:07:58Z;-0.008089696;;;;
2016-05-21T00:08:01Z;1801.9069;2016-05-21T00:08:01Z;0;2016-05-21T00:08:01Z;0;2016-05-21T00:08:01Z;-0.008047974;;;;
2016-05-21T00:08:04Z;1801.9069;2016-05-21T00:08:04Z;0;2016-05-21T00:08:04Z;0;2016-05-21T00:08:04Z;-0.008130717;;;;
2016-05-21T00:08:07Z;1801.9069;2016-05-21T00:08:07Z;0;2016-05-21T00:08:07Z;0;2016-05-21T00:08:07Z;-0.008043812;;;;
2016-05-21T00:08:10Z;1801.9069;2016-05-21T00:08:10Z;0;2016-05-21T00:08:10Z;0;2016-05-21T00:08:10Z;-0.008120748;;;;
2016-05-21T00:08:12Z;1801.9069;2016-05-21T00:08:12Z;0;2016-05-21T00:08:12Z;0;2016-05-21T00:08:12Z;-0.008140871;;;;
2016-05-21T00:08:15Z;1801.9069;2016-05-21T00:08:15Z;0;2016-05-21T00:08:15Z;0.002488182;2016-05-21T00:08:15Z;-0.008113261;;;;
2016-05-21T00:08:18Z;1801.9069;2016-05-21T00:08:18Z;0;2016-05-21T00:08:18Z;0.010156652;2016-05-21T00:08:18Z;-0.008141101;;;;
