T,x_1,x_2,x_3,x_4
"time",1,1,1,1
"flowIn",1,1,1,1
"flowOut",1,1,1,1
"pitDrill",1,1,1,1
"tripTank",1,1,1,1
"spp",1,1,1,1
"holeDepth",1,1,1,1
"bitDepth",1,1,1,1
"hookHeight",1,1,1,1
"ropAvg",1,1,1,1
"hookLoadAvg",1,1,1,1
"wobAvg",1,1,1,1
"rpmAvg",1,1,1,1
"mwdEcd",1,1,1,1
