Statistics after running 1 data sets:
Total simulation time: 30,00 hours, alg up-time: 30,00 hours (99,99814809627348%)
KPI: 0,35, FAR: 0,10, PD: 0,75
Results for all simulations:
Time series;FAR;KPI;#correctAlarms;#falseAlarms;#trueAlarms;algUpTime [h];Sim duration [h];#lateAlarms;TD [s];VD [m3]
SONGAEQUINOX-12;1,20;0,35;3;3;4;30,00;30,00;22;160,33;-0,02

Type of false alarms and warnings which have been issued:
Time series;TripOnlyLossAlarm;PitOnlyLossAlarm;FlowOnlyLossAlarm;FlowAndPressureLossAlarm;FlowAndPitLossAlarm;PitAndPressureLossAlarm;LossWarning;Normal;InfluxWarning;PitAndPressureInfluxAlarm;FlowAndPitInfluxAlarm;FlowAndPressureInfluxAlarm;FlowOnlyInfluxAlarm;PitOnlyInfluxAlarm;TripOnlyInfluxAlarm;PitSlowGainAlarm
SONGAEQUINOX-12;0;0;2;0;0;0;23;69;42;0;0;0;0;0;0;1
Sum;0;0;2;0;0;0;23;69;42;0;0;0;0;0;0;1
