Statistics after running 1 data sets:
Total simulation time: 25,17 hours, alg up-time: 25,17 hours (100%)
KPI: 1,12, FAR: 0,12, PD: 0,00
Results for all simulations:
Time series;FAR;KPI;#correctAlarms;#falseAlarms;#trueAlarms;algUpTime [h];Sim duration [h];#lateAlarms;TD [s];VD [m3]
GullfaksC-24;1,43;1,12;0;3;1;25,17;25,17;0;0,00;0,00

Type of false alarms and warnings which have been issued:
Time series;TripOnlyLossAlarm;PitOnlyLossAlarm;FlowOnlyLossAlarm;FlowAndPressureLossAlarm;FlowAndPitLossAlarm;PitAndPressureLossAlarm;LossWarning;Normal;InfluxWarning;PitAndPressureInfluxAlarm;FlowAndPitInfluxAlarm;FlowAndPressureInfluxAlarm;FlowOnlyInfluxAlarm;PitOnlyInfluxAlarm;TripOnlyInfluxAlarm;PitSlowGainAlarm
GullfaksC-24;0;0;0;0;0;0;25;203;176;2;0;0;0;1;0;0
Sum;0;0;0;0;0;0;25;203;176;2;0;0;0;1;0;0
